<svg xmlns="http://www.w3.org/2000/svg" width="2" height="32" viewBox="0 0 2 32">
  <rect width="2" height="32" fill="#191919"/>
  <rect width="2" height="1" fill="#f0f0f0" fill-opacity=".1"/>
</svg>
