<svg xmlns="http://www.w3.org/2000/svg" width="24" height="24" viewBox="0 0 24 24" fill="#d8d8d1">
  <circle cx="12" cy="12" r="10" opacity="0.2"/>
  <path d="m8.41 7l-1.41 1.41 3.59 3.59-3.59 3.59 1.41 1.41 3.59-3.59 3.59 3.59 1.41-1.41-3.59-3.59 3.59-3.59-1.41-1.41-3.59 3.59-3.59-3.59z"/>
</svg>
