<svg xmlns="http://www.w3.org/2000/svg" width="32" height="32" viewBox="0 0 32 32">
  <rect width="32" height="32" fill="#1c2023"/>
  <rect width="32" height="1" fill="#dfe2e5" fill-opacity=".1"/>
  <g fill="#dfe2e5">
    <circle cx="16" cy="16" r="12" opacity="0"/>
    <path d="m12 18h8v2h-8z" opacity=".6"/>
  </g>
</svg>
