/* XPM */
static char * title_1_active_xpm[] = {
"2 26 3 1",
" 	c None",
".	c #9ec49f",
"+	c #050505",
"..",
"++",
"++",
"++",
"++",
"++",
"++",
"++",
"++",
"++",
"++",
"++",
"++",
"++",
"++",
"++",
"++",
"++",
"++",
"++",
"++",
"++",
"++",
"++",
"++",
"++"};
