/* XPM */
static char * shade_toggled_prelight_xpm[] = {
"24 26 4 1",
" 	c None",
<<<<<<< HEAD
".	c #2b303b",
"+	c #ebcb8b",
=======
".	c #444444",
"+	c #eeeeee",
"@	c #484848",
"@@@@@@@@@@@@@@@@@@@@@@@@",
>>>>>>> 20c317abd13ec1b1bd1eef62707456f4e76b1f5d
"........................",
"........................",
"........................",
"........................",
"........................",
"........................",
"........................",
"........................",
"...........++...........",
"...........++...........",
"...........++...........",
".......+++.++.+++.......",
"........++++++++........",
".........++++++.........",
"..........++++..........",
"...........++...........",
"........................",
"........................",
"........................",
"........................",
"........................",
"........................",
"........................",
"........................",
"........................"};
