/* XPM */
static char * title_2_active_xpm[] = {
"2 26 3 1",
" 	c None",
".	c #c795ae",
"+	c #1c2023",
"..",
"++",
"++",
"++",
"++",
"++",
"++",
"++",
"++",
"++",
"++",
"++",
"++",
"++",
"++",
"++",
"++",
"++",
"++",
"++",
"++",
"++",
"++",
"++",
"++",
"++"};
