<?xml version="1.0" encoding="UTF-8"?>
<svg xmlns="http://www.w3.org/2000/svg" xmlns:xlink="http://www.w3.org/1999/xlink" width="133pt" height="133pt" viewBox="0 0 133 133" version="1.1">
<g id="surface1">
<path style=" stroke:none;fill-rule:nonzero;fill:#c795ae;fill-opacity:1;" d="M 97.101562 32.648438 C 94.074219 32.746094 91.046875 34.015625 88.898438 36.199219 L 55.304688 68.164062 L 43.816406 55.273438 C 39.714844 49.804688 30.730469 49.21875 25.976562 54.101562 C 21.222656 58.984375 21.875 68.164062 27.277344 72.265625 L 47.136719 93.621094 C 54.949219 101.433594 58.464844 100.390625 66.339844 92.480469 C 66.339844 92.480469 93.425781 59.894531 109.308594 48.894531 C 112.824219 45.574219 114.289062 44.628906 112.433594 40.136719 C 110.613281 35.613281 101.886719 32.488281 97.101562 32.648438 Z M 97.101562 32.648438 "/>
</g>
</svg>
